<svg width="960" height="540" viewBox="0 0 960 540" xmlns="http://www.w3.org/2000/svg">
<text x="480" y="32" dy="0.76em" text-anchor="middle" font-family="sans-serif" font-size="16.129032258064516" opacity="1" fill="#000000">
Packets:median
</text>
<text x="27" y="263" dy="0.76em" text-anchor="middle" font-family="sans-serif" font-size="9.67741935483871" opacity="1" fill="#000000" transform="rotate(270, 27, 263)">
Density (a.u.)
</text>
<text x="510" y="513" dy="-0.5ex" text-anchor="middle" font-family="sans-serif" font-size="9.67741935483871" opacity="1" fill="#000000">
Average time (ns)
</text>
<polyline fill="none" opacity="1" stroke="#000000" stroke-width="1" points="86,53 86,473 "/>
<text x="77" y="432" dy="0.5ex" text-anchor="end" font-family="sans-serif" font-size="9.67741935483871" opacity="1" fill="#000000">
0.5
</text>
<polyline fill="none" opacity="1" stroke="#000000" stroke-width="1" points="81,432 86,432 "/>
<text x="77" y="385" dy="0.5ex" text-anchor="end" font-family="sans-serif" font-size="9.67741935483871" opacity="1" fill="#000000">
1
</text>
<polyline fill="none" opacity="1" stroke="#000000" stroke-width="1" points="81,385 86,385 "/>
<text x="77" y="338" dy="0.5ex" text-anchor="end" font-family="sans-serif" font-size="9.67741935483871" opacity="1" fill="#000000">
1.5
</text>
<polyline fill="none" opacity="1" stroke="#000000" stroke-width="1" points="81,338 86,338 "/>
<text x="77" y="291" dy="0.5ex" text-anchor="end" font-family="sans-serif" font-size="9.67741935483871" opacity="1" fill="#000000">
2
</text>
<polyline fill="none" opacity="1" stroke="#000000" stroke-width="1" points="81,291 86,291 "/>
<text x="77" y="244" dy="0.5ex" text-anchor="end" font-family="sans-serif" font-size="9.67741935483871" opacity="1" fill="#000000">
2.5
</text>
<polyline fill="none" opacity="1" stroke="#000000" stroke-width="1" points="81,244 86,244 "/>
<text x="77" y="197" dy="0.5ex" text-anchor="end" font-family="sans-serif" font-size="9.67741935483871" opacity="1" fill="#000000">
3
</text>
<polyline fill="none" opacity="1" stroke="#000000" stroke-width="1" points="81,197 86,197 "/>
<text x="77" y="150" dy="0.5ex" text-anchor="end" font-family="sans-serif" font-size="9.67741935483871" opacity="1" fill="#000000">
3.5
</text>
<polyline fill="none" opacity="1" stroke="#000000" stroke-width="1" points="81,150 86,150 "/>
<text x="77" y="103" dy="0.5ex" text-anchor="end" font-family="sans-serif" font-size="9.67741935483871" opacity="1" fill="#000000">
4
</text>
<polyline fill="none" opacity="1" stroke="#000000" stroke-width="1" points="81,103 86,103 "/>
<text x="77" y="57" dy="0.5ex" text-anchor="end" font-family="sans-serif" font-size="9.67741935483871" opacity="1" fill="#000000">
4.5
</text>
<polyline fill="none" opacity="1" stroke="#000000" stroke-width="1" points="81,57 86,57 "/>
<polyline fill="none" opacity="1" stroke="#000000" stroke-width="1" points="87,473 933,473 "/>
<text x="197" y="483" dy="0.76em" text-anchor="middle" font-family="sans-serif" font-size="9.67741935483871" opacity="1" fill="#000000">
43
</text>
<polyline fill="none" opacity="1" stroke="#000000" stroke-width="1" points="197,473 197,478 "/>
<text x="327" y="483" dy="0.76em" text-anchor="middle" font-family="sans-serif" font-size="9.67741935483871" opacity="1" fill="#000000">
43.1
</text>
<polyline fill="none" opacity="1" stroke="#000000" stroke-width="1" points="327,473 327,478 "/>
<text x="458" y="483" dy="0.76em" text-anchor="middle" font-family="sans-serif" font-size="9.67741935483871" opacity="1" fill="#000000">
43.2
</text>
<polyline fill="none" opacity="1" stroke="#000000" stroke-width="1" points="458,473 458,478 "/>
<text x="589" y="483" dy="0.76em" text-anchor="middle" font-family="sans-serif" font-size="9.67741935483871" opacity="1" fill="#000000">
43.3
</text>
<polyline fill="none" opacity="1" stroke="#000000" stroke-width="1" points="589,473 589,478 "/>
<text x="719" y="483" dy="0.76em" text-anchor="middle" font-family="sans-serif" font-size="9.67741935483871" opacity="1" fill="#000000">
43.4
</text>
<polyline fill="none" opacity="1" stroke="#000000" stroke-width="1" points="719,473 719,478 "/>
<text x="850" y="483" dy="0.76em" text-anchor="middle" font-family="sans-serif" font-size="9.67741935483871" opacity="1" fill="#000000">
43.5
</text>
<polyline fill="none" opacity="1" stroke="#000000" stroke-width="1" points="850,473 850,478 "/>
<polyline fill="none" opacity="1" stroke="#1F78B4" stroke-width="1" points="87,465 88,465 90,465 92,465 93,466 95,466 97,466 98,466 100,466 102,467 103,467 105,467 107,467 109,468 110,468 112,468 114,468 115,468 117,467 119,467 120,467 122,466 124,465 125,465 127,464 129,463 131,462 132,461 134,460 136,459 137,458 139,457 141,456 142,455 144,454 146,453 148,452 149,452 151,451 153,451 154,450 156,450 158,450 159,450 161,450 163,450 164,450 166,451 168,451 170,451 171,452 173,452 175,452 176,453 178,453 180,453 181,453 183,453 185,453 187,453 188,453 190,453 192,452 193,452 195,451 197,451 198,451 200,450 202,449 203,449 205,448 207,448 209,447 210,446 212,446 214,445 215,444 217,444 219,443 220,442 222,442 224,441 226,440 227,439 229,438 231,438 232,437 234,436 236,435 237,434 239,433 241,432 242,431 244,430 246,429 248,428 249,427 251,426 253,424 254,423 256,421 258,419 259,418 261,416 263,414 265,412 266,409 268,407 270,405 271,402 273,400 275,398 276,395 278,393 280,391 281,389 283,387 285,385 287,384 288,383 290,382 292,382 293,382 295,382 297,383 298,384 300,385 302,387 304,389 305,391 307,394 309,397 310,400 312,402 314,405 315,408 317,411 319,414 320,416 322,418 324,420 326,421 327,422 329,423 331,423 332,423 334,422 336,421 337,420 339,419 341,417 343,415 344,413 346,411 348,409 349,407 351,406 353,404 354,403 356,401 358,400 359,400 361,399 363,399 365,399 366,400 368,401 370,401 371,402 373,403 375,404 376,405 378,406 380,406 381,406 383,406 385,406 387,405 388,403 390,401 392,398 393,395 395,390 397,386 398,380 400,374 402,367 404,359 405,351 407,342 409,333 410,324 412,314 414,304 415,294 417,283 419,273 420,264 422,254 424,245 426,236 427,229 429,221 431,215 432,210 434,205 436,201 437,199 439,197 441,196 443,196 444,197 446,198 448,201 449,204 451,207 453,211 454,215 456,220 458,225 459,229 461,234 463,239 465,243 466,248 468,252 470,255 471,259 473,262 475,265 476,268 478,270 480,272 482,274 483,276 485,277 487,278 488,279 490,280 492,281 493,281 495,282 497,282 498,282 500,282 502,282 504,282 505,281 507,280 509,279 510,278 512,276 514,274 515,272 517,270 519,267 521,264 522,260 524,256 526,253 527,249 529,244 531,240 532,236 534,232 536,228 537,225 539,222 541,219 543,217 544,216 546,215 548,216 549,217 551,219 553,221 554,225 556,229 558,234 560,239 561,245 563,251 565,257 566,263 568,269 570,275 571,281 573,287 575,291 576,296 578,300 580,303 582,305 583,308 585,309 587,310 588,311 590,311 592,312 593,312 595,312 597,311 599,311 600,311 602,311 604,311 605,311 607,312 609,312 610,312 612,313 614,313 615,314 617,314 619,315 621,315 622,315 624,315 626,314 627,314 629,313 631,313 632,311 634,310 636,309 638,307 639,305 641,303 643,301 644,299 646,297 648,294 649,291 651,288 653,285 654,282 656,278 658,275 660,271 661,266 663,262 665,257 666,253 668,247 670,242 671,236 673,231 675,225 676,218 678,212 680,205 682,198 683,191 685,184 687,177 688,170 690,163 692,156 693,149 695,142 697,135 699,129 700,122 702,116 704,111 705,106 707,102 709,98 710,95 712,92 714,91 715,90 717,91 719,92 721,94 722,98 724,102 726,107 727,113 729,121 731,129 732,137 734,147 736,157 738,167 739,178 741,189 743,200 744,211 746,221 748,232 749,242 751,251 753,260 754,268 756,276 758,283 760,290 761,295 763,301 765,305 766,309 768,313 770,316 771,319 773,321 775,323 777,324 778,325 780,325 782,325 783,325 785,324 787,323 788,321 790,319 792,316 793,313 795,309 797,305 799,301 800,296 802,291 804,286 805,281 807,276 809,272 810,267 812,263 814,260 816,257 817,255 819,254 821,253 822,254 824,255 826,258 827,261 829,265 831,270 832,275 834,281 836,288 838,295 839,303 841,311 843,319 844,328 846,336 848,344 849,353 851,361 853,368 855,376 856,383 858,390 860,396 861,402 863,408 865,413 866,418 868,423 870,427 871,431 873,434 875,437 877,440 878,442 880,445 882,447 883,449 885,451 887,452 888,454 890,455 892,456 894,457 895,458 897,459 899,460 900,461 902,462 904,463 905,464 907,464 909,465 910,466 912,466 914,467 916,468 917,468 919,469 921,469 922,470 924,470 926,470 927,471 929,471 931,471 933,472 "/>
<polygon opacity="0.25" fill="#1F78B4" points="164,450 166,451 168,451 170,451 171,452 173,452 175,452 176,453 178,453 180,453 181,453 183,453 185,453 187,453 188,453 190,453 192,452 193,452 195,451 197,451 198,451 200,450 202,449 203,449 205,448 207,448 209,447 210,446 212,446 214,445 215,444 217,444 219,443 220,442 222,442 224,441 226,440 227,439 229,438 231,438 232,437 234,436 236,435 237,434 239,433 241,432 242,431 244,430 246,429 248,428 249,427 251,426 253,424 254,423 256,421 258,419 259,418 261,416 263,414 265,412 266,409 268,407 270,405 271,402 273,400 275,398 276,395 278,393 280,391 281,389 283,387 285,385 287,384 288,383 290,382 292,382 293,382 295,382 297,383 298,384 300,385 302,387 304,389 305,391 307,394 309,397 310,400 312,402 314,405 315,408 317,411 319,414 320,416 322,418 324,420 326,421 327,422 329,423 331,423 332,423 334,422 336,421 337,420 339,419 341,417 343,415 344,413 346,411 348,409 349,407 351,406 353,404 354,403 356,401 358,400 359,400 361,399 363,399 365,399 366,400 368,401 370,401 371,402 373,403 375,404 376,405 378,406 380,406 381,406 383,406 385,406 387,405 388,403 390,401 392,398 393,395 395,390 397,386 398,380 400,374 402,367 404,359 405,351 407,342 409,333 410,324 412,314 414,304 415,294 417,283 419,273 420,264 422,254 424,245 426,236 427,229 429,221 431,215 432,210 434,205 436,201 437,199 439,197 441,196 443,196 444,197 446,198 448,201 449,204 451,207 453,211 454,215 456,220 458,225 459,229 461,234 463,239 465,243 466,248 468,252 470,255 471,259 473,262 475,265 476,268 478,270 480,272 482,274 483,276 485,277 487,278 488,279 490,280 492,281 493,281 495,282 497,282 498,282 500,282 502,282 504,282 505,281 507,280 509,279 510,278 512,276 514,274 515,272 517,270 519,267 521,264 522,260 524,256 526,253 527,249 529,244 531,240 532,236 534,232 536,228 537,225 539,222 541,219 543,217 544,216 546,215 548,216 549,217 551,219 553,221 554,225 556,229 558,234 560,239 561,245 563,251 565,257 566,263 568,269 570,275 571,281 573,287 575,291 576,296 578,300 580,303 582,305 583,308 585,309 587,310 588,311 590,311 592,312 593,312 595,312 597,311 599,311 600,311 602,311 604,311 605,311 607,312 609,312 610,312 612,313 614,313 615,314 617,314 619,315 621,315 622,315 624,315 626,314 627,314 629,313 631,313 632,311 634,310 636,309 638,307 639,305 641,303 643,301 644,299 646,297 648,294 649,291 651,288 653,285 654,282 656,278 658,275 660,271 661,266 663,262 665,257 666,253 668,247 670,242 671,236 673,231 675,225 676,218 678,212 680,205 682,198 683,191 685,184 687,177 688,170 690,163 692,156 693,149 695,142 697,135 699,129 700,122 702,116 704,111 705,106 707,102 709,98 710,95 712,92 714,91 715,90 717,91 719,92 721,94 722,98 724,102 726,107 727,113 729,121 731,129 732,137 734,147 736,157 738,167 739,178 741,189 743,200 744,211 746,221 748,232 749,242 751,251 753,260 754,268 756,276 758,283 760,290 761,295 763,301 765,305 766,309 768,313 770,316 771,319 773,321 775,323 777,324 778,325 780,325 782,325 783,325 785,324 787,323 788,321 790,319 792,316 793,313 795,309 797,305 799,301 800,296 802,291 804,286 805,281 807,276 809,272 810,267 812,263 814,260 816,257 817,255 819,254 821,253 822,254 824,255 826,258 827,261 829,265 831,270 832,275 834,281 836,288 838,295 839,303 841,311 843,319 844,328 846,336 848,344 849,353 851,361 853,368 853,473 164,473 "/>
<polyline fill="none" opacity="1" stroke="#1F78B4" stroke-width="3" points="600,473 600,311 "/>
<text x="798" y="68" dy="0.76em" text-anchor="start" font-family="sans-serif" font-size="9.67741935483871" opacity="1" fill="#000000">
Bootstrap distribution
</text>
<text x="798" y="83" dy="0.76em" text-anchor="start" font-family="sans-serif" font-size="9.67741935483871" opacity="1" fill="#000000">
Confidence interval
</text>
<text x="798" y="98" dy="0.76em" text-anchor="start" font-family="sans-serif" font-size="9.67741935483871" opacity="1" fill="#000000">
Point estimate
</text>
<polyline fill="none" opacity="1" stroke="#1F78B4" stroke-width="1" points="768,73 788,73 "/>
<rect x="768" y="83" width="20" height="10" opacity="0.25" fill="#1F78B4" stroke="none"/>
<polyline fill="none" opacity="1" stroke="#1F78B4" stroke-width="1" points="768,103 788,103 "/>
</svg>
