<svg width="960" height="540" viewBox="0 0 960 540" xmlns="http://www.w3.org/2000/svg">
<text x="480" y="32" dy="0.76em" text-anchor="middle" font-family="sans-serif" font-size="16.129032258064516" opacity="1" fill="#000000">
Packets
</text>
<text x="27" y="263" dy="0.76em" text-anchor="middle" font-family="sans-serif" font-size="9.67741935483871" opacity="1" fill="#000000" transform="rotate(270, 27, 263)">
Iterations (x 10^6)
</text>
<text x="480" y="513" dy="-0.5ex" text-anchor="middle" font-family="sans-serif" font-size="9.67741935483871" opacity="1" fill="#000000">
Average Time (ns)
</text>
<polyline fill="none" opacity="1" stroke="#000000" stroke-width="1" points="86,53 86,473 "/>
<text x="77" y="379" dy="0.5ex" text-anchor="end" font-family="sans-serif" font-size="9.67741935483871" opacity="1" fill="#000000">
0.5
</text>
<polyline fill="none" opacity="1" stroke="#000000" stroke-width="1" points="81,379 86,379 "/>
<text x="77" y="287" dy="0.5ex" text-anchor="end" font-family="sans-serif" font-size="9.67741935483871" opacity="1" fill="#000000">
1
</text>
<polyline fill="none" opacity="1" stroke="#000000" stroke-width="1" points="81,287 86,287 "/>
<text x="77" y="195" dy="0.5ex" text-anchor="end" font-family="sans-serif" font-size="9.67741935483871" opacity="1" fill="#000000">
1.5
</text>
<polyline fill="none" opacity="1" stroke="#000000" stroke-width="1" points="81,195 86,195 "/>
<text x="77" y="103" dy="0.5ex" text-anchor="end" font-family="sans-serif" font-size="9.67741935483871" opacity="1" fill="#000000">
2
</text>
<polyline fill="none" opacity="1" stroke="#000000" stroke-width="1" points="81,103 86,103 "/>
<polyline fill="none" opacity="1" stroke="#000000" stroke-width="1" points="87,473 873,473 "/>
<text x="116" y="483" dy="0.76em" text-anchor="middle" font-family="sans-serif" font-size="9.67741935483871" opacity="1" fill="#000000">
40
</text>
<polyline fill="none" opacity="1" stroke="#000000" stroke-width="1" points="116,473 116,478 "/>
<text x="225" y="483" dy="0.76em" text-anchor="middle" font-family="sans-serif" font-size="9.67741935483871" opacity="1" fill="#000000">
42
</text>
<polyline fill="none" opacity="1" stroke="#000000" stroke-width="1" points="225,473 225,478 "/>
<text x="333" y="483" dy="0.76em" text-anchor="middle" font-family="sans-serif" font-size="9.67741935483871" opacity="1" fill="#000000">
44
</text>
<polyline fill="none" opacity="1" stroke="#000000" stroke-width="1" points="333,473 333,478 "/>
<text x="442" y="483" dy="0.76em" text-anchor="middle" font-family="sans-serif" font-size="9.67741935483871" opacity="1" fill="#000000">
46
</text>
<polyline fill="none" opacity="1" stroke="#000000" stroke-width="1" points="442,473 442,478 "/>
<text x="551" y="483" dy="0.76em" text-anchor="middle" font-family="sans-serif" font-size="9.67741935483871" opacity="1" fill="#000000">
48
</text>
<polyline fill="none" opacity="1" stroke="#000000" stroke-width="1" points="551,473 551,478 "/>
<text x="659" y="483" dy="0.76em" text-anchor="middle" font-family="sans-serif" font-size="9.67741935483871" opacity="1" fill="#000000">
50
</text>
<polyline fill="none" opacity="1" stroke="#000000" stroke-width="1" points="659,473 659,478 "/>
<text x="768" y="483" dy="0.76em" text-anchor="middle" font-family="sans-serif" font-size="9.67741935483871" opacity="1" fill="#000000">
52
</text>
<polyline fill="none" opacity="1" stroke="#000000" stroke-width="1" points="768,473 768,478 "/>
<text x="933" y="263" dy="0.76em" text-anchor="middle" font-family="sans-serif" font-size="9.67741935483871" opacity="1" fill="#000000" transform="rotate(90, 933, 263)">
Density (a.u.)
</text>
<polyline fill="none" opacity="1" stroke="#000000" stroke-width="1" points="873,54 873,473 "/>
<text x="883" y="396" dy="0.5ex" text-anchor="start" font-family="sans-serif" font-size="9.67741935483871" opacity="1" fill="#000000">
0.05
</text>
<polyline fill="none" opacity="1" stroke="#000000" stroke-width="1" points="873,396 878,396 "/>
<text x="905" y="319" dy="0.5ex" text-anchor="end" font-family="sans-serif" font-size="9.67741935483871" opacity="1" fill="#000000">
0.1
</text>
<polyline fill="none" opacity="1" stroke="#000000" stroke-width="1" points="873,319 878,319 "/>
<text x="883" y="242" dy="0.5ex" text-anchor="start" font-family="sans-serif" font-size="9.67741935483871" opacity="1" fill="#000000">
0.15
</text>
<polyline fill="none" opacity="1" stroke="#000000" stroke-width="1" points="873,242 878,242 "/>
<text x="905" y="166" dy="0.5ex" text-anchor="end" font-family="sans-serif" font-size="9.67741935483871" opacity="1" fill="#000000">
0.2
</text>
<polyline fill="none" opacity="1" stroke="#000000" stroke-width="1" points="873,166 878,166 "/>
<text x="883" y="89" dy="0.5ex" text-anchor="start" font-family="sans-serif" font-size="9.67741935483871" opacity="1" fill="#000000">
0.25
</text>
<polyline fill="none" opacity="1" stroke="#000000" stroke-width="1" points="873,89 878,89 "/>
<polygon opacity="0.5" fill="#1F78B4" points="87,472 88,472 90,472 91,472 93,472 94,472 96,472 98,471 99,471 101,471 102,471 104,471 105,470 107,470 109,470 110,469 112,469 113,468 115,468 116,467 118,467 120,466 121,465 123,465 124,464 126,463 127,462 129,460 131,459 132,458 134,456 135,455 137,453 138,451 140,449 142,447 143,444 145,442 146,439 148,436 150,433 151,430 153,426 154,423 156,419 157,415 159,411 161,406 162,402 164,397 165,392 167,387 168,381 170,376 172,370 173,364 175,358 176,351 178,345 179,338 181,331 183,324 184,317 186,310 187,303 189,296 190,288 192,281 194,273 195,266 197,258 198,251 200,243 201,235 203,228 205,221 206,213 208,206 209,199 211,192 213,185 214,179 216,172 217,166 219,159 220,153 222,148 224,142 225,136 227,131 228,126 230,121 231,117 233,112 235,108 236,104 238,100 239,97 241,93 242,90 244,87 246,84 247,81 249,79 250,76 252,74 253,72 255,70 257,68 258,66 260,65 261,63 263,62 264,60 266,59 268,58 269,57 271,56 272,56 274,55 276,54 277,54 279,53 280,53 282,53 283,53 285,53 287,53 288,53 290,53 291,53 293,54 294,55 296,55 298,56 299,57 301,58 302,60 304,61 305,62 307,64 309,66 310,68 312,70 313,72 315,75 316,77 318,80 320,83 321,86 323,89 324,92 326,95 327,99 329,102 331,106 332,110 334,114 335,119 337,123 339,127 340,132 342,137 343,141 345,146 346,151 348,156 350,161 351,166 353,172 354,177 356,182 357,188 359,193 361,199 362,204 364,210 365,215 367,221 368,226 370,231 372,237 373,242 375,247 376,253 378,258 379,263 381,268 383,272 384,277 386,282 387,286 389,291 391,295 392,299 394,303 395,307 397,311 398,315 400,319 402,322 403,325 405,329 406,332 408,335 409,338 411,341 413,344 414,347 416,349 417,352 419,355 420,357 422,359 424,362 425,364 427,367 428,369 430,371 431,373 433,375 435,378 436,380 438,382 439,384 441,386 442,388 444,390 446,392 447,394 449,396 450,398 452,400 454,402 455,404 457,405 458,407 460,409 461,411 463,413 465,414 466,416 468,418 469,419 471,421 472,423 474,424 476,426 477,427 479,429 480,430 482,432 483,433 485,435 487,436 488,438 490,439 491,440 493,441 494,443 496,444 498,445 499,446 501,448 502,449 504,450 505,451 507,452 509,453 510,454 512,455 513,456 515,457 517,458 518,459 520,459 521,460 523,461 524,462 526,462 528,463 529,464 531,464 532,465 534,465 535,466 537,466 539,467 540,467 542,468 543,468 545,468 546,469 548,469 550,469 551,470 553,470 554,470 556,470 557,471 559,471 561,471 562,471 564,471 565,471 567,471 568,472 570,472 572,472 573,472 575,472 576,472 578,472 580,472 581,472 583,472 584,472 586,472 587,472 589,472 591,472 592,472 594,472 595,472 597,472 598,472 600,472 602,472 603,472 605,472 606,472 608,472 609,472 611,472 613,472 614,472 616,472 617,472 619,472 620,472 622,472 624,472 625,472 627,472 628,472 630,472 632,472 633,472 635,472 636,472 638,472 639,472 641,472 643,472 644,472 646,472 647,472 649,472 650,472 652,472 654,472 655,472 657,472 658,472 660,472 661,472 663,472 665,472 666,472 668,472 669,472 671,472 672,472 674,472 676,472 677,472 679,472 680,472 682,472 683,472 685,472 687,472 688,472 690,472 691,472 693,472 695,472 696,471 698,471 699,471 701,471 702,471 704,471 706,471 707,471 709,470 710,470 712,470 713,470 715,470 717,469 718,469 720,469 721,469 723,468 724,468 726,468 728,468 729,467 731,467 732,467 734,467 735,466 737,466 739,466 740,466 742,465 743,465 745,465 746,465 748,464 750,464 751,464 753,464 754,464 756,464 758,463 759,463 761,463 762,463 764,463 765,463 767,463 769,463 770,463 772,463 773,463 775,463 776,463 778,463 780,463 781,464 783,464 784,464 786,464 787,464 789,464 791,465 792,465 794,465 795,465 797,466 798,466 800,466 802,466 803,467 805,467 806,467 808,467 809,468 811,468 813,468 814,468 816,469 817,469 819,469 821,469 822,470 824,470 825,470 827,470 828,470 830,471 832,471 833,471 835,471 836,471 838,471 839,471 841,471 843,472 844,472 846,472 847,472 849,472 850,472 852,472 854,472 855,472 857,472 858,472 860,472 861,472 863,472 865,472 866,472 868,472 869,472 871,472 873,472 873,473 87,473 "/>
<polyline fill="none" opacity="1" stroke="#1F78B4" stroke-width="1" points="304,472 304,53 "/>
<polyline fill="none" opacity="1" stroke="#FF7F00" stroke-width="1" points="93,472 93,53 "/>
<polyline fill="none" opacity="1" stroke="#FF7F00" stroke-width="1" points="499,472 499,53 "/>
<polyline fill="none" opacity="1" stroke="#E31A1C" stroke-width="1" points="87,472 87,53 "/>
<polyline fill="none" opacity="1" stroke="#E31A1C" stroke-width="1" points="652,472 652,53 "/>
<circle cx="210" cy="467" r="3" opacity="1" fill="#1F78B4" stroke="none"/>
<circle cx="203" cy="463" r="3" opacity="1" fill="#1F78B4" stroke="none"/>
<circle cx="190" cy="459" r="3" opacity="1" fill="#1F78B4" stroke="none"/>
<circle cx="195" cy="451" r="3" opacity="1" fill="#1F78B4" stroke="none"/>
<circle cx="205" cy="446" r="3" opacity="1" fill="#1F78B4" stroke="none"/>
<circle cx="272" cy="442" r="3" opacity="1" fill="#1F78B4" stroke="none"/>
<circle cx="198" cy="438" r="3" opacity="1" fill="#1F78B4" stroke="none"/>
<circle cx="232" cy="434" r="3" opacity="1" fill="#1F78B4" stroke="none"/>
<circle cx="211" cy="430" r="3" opacity="1" fill="#1F78B4" stroke="none"/>
<circle cx="256" cy="425" r="3" opacity="1" fill="#1F78B4" stroke="none"/>
<circle cx="307" cy="421" r="3" opacity="1" fill="#1F78B4" stroke="none"/>
<circle cx="232" cy="417" r="3" opacity="1" fill="#1F78B4" stroke="none"/>
<circle cx="222" cy="413" r="3" opacity="1" fill="#1F78B4" stroke="none"/>
<circle cx="426" cy="409" r="3" opacity="1" fill="#1F78B4" stroke="none"/>
<circle cx="342" cy="404" r="3" opacity="1" fill="#1F78B4" stroke="none"/>
<circle cx="203" cy="400" r="3" opacity="1" fill="#1F78B4" stroke="none"/>
<circle cx="223" cy="396" r="3" opacity="1" fill="#1F78B4" stroke="none"/>
<circle cx="230" cy="392" r="3" opacity="1" fill="#1F78B4" stroke="none"/>
<circle cx="223" cy="388" r="3" opacity="1" fill="#1F78B4" stroke="none"/>
<circle cx="369" cy="383" r="3" opacity="1" fill="#1F78B4" stroke="none"/>
<circle cx="340" cy="379" r="3" opacity="1" fill="#1F78B4" stroke="none"/>
<circle cx="305" cy="375" r="3" opacity="1" fill="#1F78B4" stroke="none"/>
<circle cx="265" cy="371" r="3" opacity="1" fill="#1F78B4" stroke="none"/>
<circle cx="212" cy="367" r="3" opacity="1" fill="#1F78B4" stroke="none"/>
<circle cx="243" cy="362" r="3" opacity="1" fill="#1F78B4" stroke="none"/>
<circle cx="219" cy="358" r="3" opacity="1" fill="#1F78B4" stroke="none"/>
<circle cx="225" cy="354" r="3" opacity="1" fill="#1F78B4" stroke="none"/>
<circle cx="258" cy="350" r="3" opacity="1" fill="#1F78B4" stroke="none"/>
<circle cx="254" cy="346" r="3" opacity="1" fill="#1F78B4" stroke="none"/>
<circle cx="250" cy="341" r="3" opacity="1" fill="#1F78B4" stroke="none"/>
<circle cx="395" cy="337" r="3" opacity="1" fill="#1F78B4" stroke="none"/>
<circle cx="356" cy="333" r="3" opacity="1" fill="#1F78B4" stroke="none"/>
<circle cx="417" cy="329" r="3" opacity="1" fill="#1F78B4" stroke="none"/>
<circle cx="289" cy="325" r="3" opacity="1" fill="#1F78B4" stroke="none"/>
<circle cx="284" cy="320" r="3" opacity="1" fill="#1F78B4" stroke="none"/>
<circle cx="305" cy="316" r="3" opacity="1" fill="#1F78B4" stroke="none"/>
<circle cx="360" cy="312" r="3" opacity="1" fill="#1F78B4" stroke="none"/>
<circle cx="344" cy="308" r="3" opacity="1" fill="#1F78B4" stroke="none"/>
<circle cx="272" cy="304" r="3" opacity="1" fill="#1F78B4" stroke="none"/>
<circle cx="348" cy="299" r="3" opacity="1" fill="#1F78B4" stroke="none"/>
<circle cx="309" cy="295" r="3" opacity="1" fill="#1F78B4" stroke="none"/>
<circle cx="266" cy="291" r="3" opacity="1" fill="#1F78B4" stroke="none"/>
<circle cx="441" cy="287" r="3" opacity="1" fill="#1F78B4" stroke="none"/>
<circle cx="288" cy="283" r="3" opacity="1" fill="#1F78B4" stroke="none"/>
<circle cx="259" cy="278" r="3" opacity="1" fill="#1F78B4" stroke="none"/>
<circle cx="359" cy="274" r="3" opacity="1" fill="#1F78B4" stroke="none"/>
<circle cx="428" cy="270" r="3" opacity="1" fill="#1F78B4" stroke="none"/>
<circle cx="294" cy="266" r="3" opacity="1" fill="#1F78B4" stroke="none"/>
<circle cx="391" cy="262" r="3" opacity="1" fill="#1F78B4" stroke="none"/>
<circle cx="298" cy="257" r="3" opacity="1" fill="#1F78B4" stroke="none"/>
<circle cx="417" cy="253" r="3" opacity="1" fill="#1F78B4" stroke="none"/>
<circle cx="306" cy="249" r="3" opacity="1" fill="#1F78B4" stroke="none"/>
<circle cx="406" cy="245" r="3" opacity="1" fill="#1F78B4" stroke="none"/>
<circle cx="249" cy="241" r="3" opacity="1" fill="#1F78B4" stroke="none"/>
<circle cx="485" cy="236" r="3" opacity="1" fill="#1F78B4" stroke="none"/>
<circle cx="354" cy="232" r="3" opacity="1" fill="#1F78B4" stroke="none"/>
<circle cx="323" cy="228" r="3" opacity="1" fill="#1F78B4" stroke="none"/>
<circle cx="356" cy="224" r="3" opacity="1" fill="#1F78B4" stroke="none"/>
<circle cx="327" cy="220" r="3" opacity="1" fill="#1F78B4" stroke="none"/>
<circle cx="327" cy="215" r="3" opacity="1" fill="#1F78B4" stroke="none"/>
<circle cx="302" cy="211" r="3" opacity="1" fill="#1F78B4" stroke="none"/>
<circle cx="316" cy="207" r="3" opacity="1" fill="#1F78B4" stroke="none"/>
<circle cx="225" cy="203" r="3" opacity="1" fill="#1F78B4" stroke="none"/>
<circle cx="228" cy="199" r="3" opacity="1" fill="#1F78B4" stroke="none"/>
<circle cx="346" cy="194" r="3" opacity="1" fill="#1F78B4" stroke="none"/>
<circle cx="398" cy="190" r="3" opacity="1" fill="#1F78B4" stroke="none"/>
<circle cx="294" cy="186" r="3" opacity="1" fill="#1F78B4" stroke="none"/>
<circle cx="300" cy="182" r="3" opacity="1" fill="#1F78B4" stroke="none"/>
<circle cx="353" cy="178" r="3" opacity="1" fill="#1F78B4" stroke="none"/>
<circle cx="354" cy="173" r="3" opacity="1" fill="#1F78B4" stroke="none"/>
<circle cx="225" cy="169" r="3" opacity="1" fill="#1F78B4" stroke="none"/>
<circle cx="277" cy="165" r="3" opacity="1" fill="#1F78B4" stroke="none"/>
<circle cx="289" cy="161" r="3" opacity="1" fill="#1F78B4" stroke="none"/>
<circle cx="301" cy="157" r="3" opacity="1" fill="#1F78B4" stroke="none"/>
<circle cx="328" cy="152" r="3" opacity="1" fill="#1F78B4" stroke="none"/>
<circle cx="241" cy="148" r="3" opacity="1" fill="#1F78B4" stroke="none"/>
<circle cx="305" cy="144" r="3" opacity="1" fill="#1F78B4" stroke="none"/>
<circle cx="323" cy="140" r="3" opacity="1" fill="#1F78B4" stroke="none"/>
<circle cx="347" cy="136" r="3" opacity="1" fill="#1F78B4" stroke="none"/>
<circle cx="291" cy="131" r="3" opacity="1" fill="#1F78B4" stroke="none"/>
<circle cx="241" cy="127" r="3" opacity="1" fill="#1F78B4" stroke="none"/>
<circle cx="229" cy="123" r="3" opacity="1" fill="#1F78B4" stroke="none"/>
<circle cx="246" cy="119" r="3" opacity="1" fill="#1F78B4" stroke="none"/>
<circle cx="355" cy="115" r="3" opacity="1" fill="#1F78B4" stroke="none"/>
<circle cx="348" cy="110" r="3" opacity="1" fill="#1F78B4" stroke="none"/>
<circle cx="250" cy="106" r="3" opacity="1" fill="#1F78B4" stroke="none"/>
<circle cx="278" cy="102" r="3" opacity="1" fill="#1F78B4" stroke="none"/>
<circle cx="319" cy="98" r="3" opacity="1" fill="#1F78B4" stroke="none"/>
<circle cx="281" cy="94" r="3" opacity="1" fill="#1F78B4" stroke="none"/>
<circle cx="360" cy="89" r="3" opacity="1" fill="#1F78B4" stroke="none"/>
<circle cx="283" cy="85" r="3" opacity="1" fill="#1F78B4" stroke="none"/>
<circle cx="319" cy="81" r="3" opacity="1" fill="#1F78B4" stroke="none"/>
<circle cx="257" cy="77" r="3" opacity="1" fill="#1F78B4" stroke="none"/>
<circle cx="318" cy="73" r="3" opacity="1" fill="#1F78B4" stroke="none"/>
<circle cx="301" cy="68" r="3" opacity="1" fill="#1F78B4" stroke="none"/>
<circle cx="478" cy="64" r="3" opacity="1" fill="#1F78B4" stroke="none"/>
<circle cx="267" cy="60" r="3" opacity="1" fill="#1F78B4" stroke="none"/>
<circle cx="240" cy="56" r="3" opacity="1" fill="#1F78B4" stroke="none"/>
<circle cx="446" cy="53" r="3" opacity="1" fill="#1F78B4" stroke="none"/>
<circle cx="769" cy="455" r="3" opacity="1" fill="#E31A1C" stroke="none"/>
<text x="776" y="228" dy="0.76em" text-anchor="start" font-family="sans-serif" font-size="9.67741935483871" opacity="1" fill="#000000">
PDF
</text>
<text x="776" y="243" dy="0.76em" text-anchor="start" font-family="sans-serif" font-size="9.67741935483871" opacity="1" fill="#000000">
Mean
</text>
<text x="776" y="258" dy="0.76em" text-anchor="start" font-family="sans-serif" font-size="9.67741935483871" opacity="1" fill="#000000">
&quot;Clean&quot; sample
</text>
<text x="776" y="273" dy="0.76em" text-anchor="start" font-family="sans-serif" font-size="9.67741935483871" opacity="1" fill="#000000">
Mild outliers
</text>
<text x="776" y="288" dy="0.76em" text-anchor="start" font-family="sans-serif" font-size="9.67741935483871" opacity="1" fill="#000000">
Severe outliers
</text>
<rect x="746" y="228" width="20" height="10" opacity="0.5" fill="#1F78B4" stroke="none"/>
<polyline fill="none" opacity="1" stroke="#1F78B4" stroke-width="1" points="746,248 766,248 "/>
<circle cx="756" cy="263" r="3" opacity="1" fill="#1F78B4" stroke="none"/>
<circle cx="756" cy="278" r="3" opacity="1" fill="#FF7F00" stroke="none"/>
<circle cx="756" cy="293" r="3" opacity="1" fill="#E31A1C" stroke="none"/>
</svg>
