<svg width="450" height="300" viewBox="0 0 450 300" xmlns="http://www.w3.org/2000/svg">
<text x="15" y="130" dy="0.76em" text-anchor="middle" font-family="sans-serif" font-size="9.67741935483871" opacity="1" fill="#000000" transform="rotate(270, 15, 130)">
Density (a.u.)
</text>
<text x="255" y="285" dy="-0.5ex" text-anchor="middle" font-family="sans-serif" font-size="9.67741935483871" opacity="1" fill="#000000">
Average Time (ns)
</text>
<polyline fill="none" opacity="1" stroke="#000000" stroke-width="1" points="74,15 74,245 "/>
<text x="65" y="201" dy="0.5ex" text-anchor="end" font-family="sans-serif" font-size="9.67741935483871" opacity="1" fill="#000000">
0.05
</text>
<polyline fill="none" opacity="1" stroke="#000000" stroke-width="1" points="69,201 74,201 "/>
<text x="65" y="159" dy="0.5ex" text-anchor="end" font-family="sans-serif" font-size="9.67741935483871" opacity="1" fill="#000000">
0.1
</text>
<polyline fill="none" opacity="1" stroke="#000000" stroke-width="1" points="69,159 74,159 "/>
<text x="65" y="117" dy="0.5ex" text-anchor="end" font-family="sans-serif" font-size="9.67741935483871" opacity="1" fill="#000000">
0.15
</text>
<polyline fill="none" opacity="1" stroke="#000000" stroke-width="1" points="69,117 74,117 "/>
<text x="65" y="75" dy="0.5ex" text-anchor="end" font-family="sans-serif" font-size="9.67741935483871" opacity="1" fill="#000000">
0.2
</text>
<polyline fill="none" opacity="1" stroke="#000000" stroke-width="1" points="69,75 74,75 "/>
<text x="65" y="33" dy="0.5ex" text-anchor="end" font-family="sans-serif" font-size="9.67741935483871" opacity="1" fill="#000000">
0.25
</text>
<polyline fill="none" opacity="1" stroke="#000000" stroke-width="1" points="69,33 74,33 "/>
<polyline fill="none" opacity="1" stroke="#000000" stroke-width="1" points="75,245 435,245 "/>
<text x="108" y="255" dy="0.76em" text-anchor="middle" font-family="sans-serif" font-size="9.67741935483871" opacity="1" fill="#000000">
50
</text>
<polyline fill="none" opacity="1" stroke="#000000" stroke-width="1" points="108,245 108,250 "/>
<text x="267" y="255" dy="0.76em" text-anchor="middle" font-family="sans-serif" font-size="9.67741935483871" opacity="1" fill="#000000">
100
</text>
<polyline fill="none" opacity="1" stroke="#000000" stroke-width="1" points="267,245 267,250 "/>
<text x="425" y="255" dy="0.76em" text-anchor="middle" font-family="sans-serif" font-size="9.67741935483871" opacity="1" fill="#000000">
150
</text>
<polyline fill="none" opacity="1" stroke="#000000" stroke-width="1" points="425,245 425,250 "/>
<polygon opacity="0.5" fill="#E31A1C" points="262,243 262,243 263,243 263,243 263,243 264,243 264,243 264,243 265,243 265,243 266,243 266,243 266,243 267,243 267,243 267,243 268,243 268,243 268,243 269,243 269,243 269,243 270,243 270,243 270,243 271,243 271,243 271,243 272,243 272,243 272,242 273,242 273,242 273,242 274,242 274,242 275,242 275,242 275,241 276,241 276,241 276,241 277,241 277,240 277,240 278,240 278,240 278,239 279,239 279,239 279,239 280,238 280,238 280,237 281,237 281,237 281,236 282,236 282,235 282,235 283,234 283,234 283,233 284,233 284,232 285,231 285,231 285,230 286,229 286,229 286,228 287,227 287,226 287,226 288,225 288,224 288,223 289,222 289,221 289,221 290,220 290,219 290,218 291,217 291,216 291,215 292,214 292,213 292,212 293,211 293,210 294,209 294,208 294,207 295,206 295,205 295,205 296,204 296,203 296,202 297,201 297,200 297,199 298,198 298,198 298,197 299,196 299,195 299,195 300,194 300,193 300,193 301,192 301,192 301,191 302,190 302,190 302,190 303,189 303,189 304,188 304,188 304,188 305,187 305,187 305,187 306,187 306,187 306,186 307,186 307,186 307,186 308,186 308,186 308,186 309,186 309,186 309,186 310,186 310,186 310,186 311,187 311,187 311,187 312,187 312,187 313,187 313,187 313,188 314,188 314,188 314,188 315,189 315,189 315,189 316,189 316,190 316,190 317,190 317,191 317,191 318,191 318,192 318,192 319,192 319,193 319,193 320,193 320,194 320,194 321,195 321,195 322,196 322,196 322,197 323,197 323,198 323,198 324,199 324,199 324,200 325,200 325,201 325,202 326,202 326,203 326,203 327,204 327,205 327,205 328,206 328,207 328,208 329,208 329,209 329,210 330,210 330,211 330,212 331,213 331,213 332,214 332,215 332,215 333,216 333,217 333,218 334,218 334,219 334,220 335,220 335,221 335,221 336,222 336,223 336,223 337,224 337,224 337,225 338,225 338,226 338,226 339,227 339,227 339,228 340,228 340,228 341,229 341,229 341,229 342,230 342,230 342,230 343,231 343,231 343,231 344,231 344,231 344,232 345,232 345,232 345,232 346,232 346,232 346,232 347,232 347,232 347,233 348,233 348,233 348,233 349,233 349,233 349,233 350,233 350,233 351,233 351,233 351,233 352,233 352,233 352,233 353,233 353,233 353,234 354,234 354,234 354,234 355,234 355,234 355,234 356,234 356,234 356,234 357,234 357,234 357,234 358,235 358,235 358,235 359,235 359,235 360,235 360,235 360,235 361,236 361,236 361,236 362,236 362,236 362,236 363,236 363,237 363,237 364,237 364,237 364,237 365,237 365,237 365,238 366,238 366,238 366,238 367,238 367,238 367,238 368,238 368,239 369,239 369,239 369,239 370,239 370,239 370,239 371,239 371,240 371,240 372,240 372,240 372,240 373,240 373,240 373,240 374,240 374,240 374,241 375,241 375,241 375,241 376,241 376,241 376,241 377,241 377,241 377,241 378,241 378,241 379,241 379,241 379,241 380,241 380,241 380,241 381,241 381,242 381,242 382,242 382,242 382,242 383,242 383,242 383,242 384,242 384,242 384,242 385,242 385,242 385,242 386,242 386,242 386,242 387,242 387,242 388,242 388,242 388,242 389,242 389,242 389,242 390,242 390,242 390,242 391,242 391,242 391,242 392,242 392,242 392,242 393,242 393,242 393,242 394,242 394,242 394,242 395,242 395,242 395,242 396,242 396,242 396,241 397,241 397,241 398,241 398,241 398,241 399,241 399,241 399,241 400,241 400,241 400,241 401,241 401,241 401,241 402,241 402,241 402,241 403,241 403,241 403,241 404,241 404,241 404,241 405,241 405,241 405,241 406,242 406,242 407,242 407,242 407,242 408,242 408,242 408,242 409,242 409,242 409,242 410,242 410,242 410,242 411,242 411,242 411,242 412,242 412,242 412,242 413,242 413,242 413,242 414,242 414,242 414,242 415,242 415,243 415,243 416,243 416,243 417,243 417,243 417,243 418,243 418,243 418,243 419,243 419,243 419,243 420,243 420,243 420,243 421,243 421,243 421,243 422,243 422,243 422,243 423,243 423,243 423,243 424,243 424,243 424,243 425,243 425,243 426,243 426,243 426,243 427,243 427,243 427,243 428,243 428,243 428,243 429,243 429,243 429,243 430,243 430,243 430,243 431,243 431,243 431,243 432,243 432,243 432,243 433,243 433,243 433,243 434,243 434,243 435,243 435,244 262,244 "/>
<polygon opacity="0.5" fill="#1F78B4" points="75,243 75,243 75,243 75,243 75,243 75,243 75,243 75,243 75,243 75,243 75,243 76,242 76,242 76,242 76,242 76,242 76,242 76,241 76,241 76,241 76,240 76,240 77,240 77,239 77,239 77,238 77,237 77,237 77,236 77,235 77,235 77,234 77,233 78,232 78,231 78,229 78,228 78,227 78,225 78,224 78,222 78,220 78,218 78,216 79,214 79,212 79,210 79,207 79,205 79,202 79,199 79,197 79,194 79,191 79,187 80,184 80,181 80,177 80,174 80,170 80,166 80,162 80,159 80,155 80,151 80,147 81,143 81,138 81,134 81,130 81,126 81,122 81,118 81,114 81,110 81,106 82,102 82,98 82,94 82,90 82,86 82,83 82,79 82,75 82,72 82,69 82,66 83,62 83,60 83,57 83,54 83,51 83,49 83,46 83,44 83,42 83,40 83,38 84,36 84,34 84,32 84,31 84,29 84,28 84,27 84,25 84,24 84,23 84,22 85,21 85,20 85,19 85,19 85,18 85,17 85,17 85,16 85,16 85,15 85,15 86,15 86,15 86,15 86,15 86,15 86,15 86,15 86,15 86,15 86,15 86,15 87,15 87,15 87,15 87,16 87,16 87,17 87,17 87,18 87,19 87,20 87,21 88,22 88,23 88,24 88,26 88,27 88,28 88,30 88,32 88,33 88,35 89,37 89,39 89,41 89,43 89,45 89,47 89,50 89,52 89,54 89,57 89,60 90,62 90,65 90,68 90,70 90,73 90,76 90,79 90,82 90,85 90,88 90,91 91,94 91,97 91,100 91,103 91,106 91,109 91,112 91,114 91,117 91,120 91,123 92,126 92,129 92,131 92,134 92,137 92,139 92,142 92,144 92,146 92,149 92,151 93,153 93,155 93,157 93,159 93,161 93,163 93,165 93,167 93,168 93,170 93,171 94,173 94,175 94,176 94,177 94,179 94,180 94,182 94,183 94,184 94,185 94,187 95,188 95,189 95,190 95,192 95,193 95,194 95,195 95,196 95,197 95,198 96,199 96,200 96,202 96,203 96,204 96,205 96,206 96,207 96,208 96,209 96,210 97,211 97,212 97,213 97,214 97,214 97,215 97,216 97,217 97,218 97,219 97,220 98,220 98,221 98,222 98,223 98,224 98,224 98,225 98,226 98,227 98,227 98,228 99,229 99,229 99,230 99,230 99,231 99,232 99,232 99,233 99,233 99,234 99,234 100,235 100,235 100,236 100,236 100,237 100,237 100,238 100,238 100,238 100,239 100,239 101,239 101,240 101,240 101,240 101,240 101,241 101,241 101,241 101,241 101,241 101,242 102,242 102,242 102,242 102,242 102,242 102,242 102,243 102,243 102,243 102,243 103,243 103,243 103,243 103,243 103,243 103,243 103,243 103,243 103,243 103,243 103,243 104,243 104,243 104,243 104,243 104,243 104,243 104,243 104,243 104,243 104,243 104,243 105,243 105,243 105,243 105,243 105,243 105,243 105,243 105,243 105,243 105,243 105,243 106,243 106,243 106,243 106,244 106,244 106,244 106,244 106,244 106,244 106,244 106,244 107,244 107,243 107,243 107,243 107,243 107,243 107,243 107,243 107,243 107,243 107,243 108,243 108,243 108,243 108,243 108,243 108,243 108,243 108,243 108,243 108,243 108,243 109,243 109,243 109,243 109,243 109,243 109,243 109,243 109,243 109,243 109,243 110,243 110,243 110,243 110,243 110,243 110,243 110,243 110,243 110,243 110,243 110,243 111,243 111,243 111,243 111,242 111,242 111,242 111,242 111,242 111,242 111,242 111,242 112,242 112,241 112,241 112,241 112,241 112,241 112,241 112,241 112,240 112,240 112,240 113,240 113,240 113,240 113,240 113,239 113,239 113,239 113,239 113,239 113,239 113,239 114,239 114,239 114,239 114,238 114,238 114,238 114,238 114,238 114,238 114,238 114,238 115,238 115,238 115,238 115,238 115,238 115,239 115,239 115,239 115,239 115,239 115,239 116,239 116,239 116,239 116,239 116,240 116,240 116,240 116,240 116,240 116,240 117,240 117,241 117,241 117,241 117,241 117,241 117,241 117,241 117,242 117,242 117,242 118,242 118,242 118,242 118,242 118,242 118,242 118,242 118,243 118,243 118,243 118,243 119,243 119,243 119,243 119,243 119,243 119,243 119,243 119,243 119,243 119,243 119,243 120,243 120,243 120,243 120,243 120,243 120,243 120,243 120,243 120,243 120,243 120,243 120,244 75,244 "/>
<polyline fill="none" opacity="1" stroke="#E31A1C" stroke-width="2" points="318,244 318,192 "/>
<polyline fill="none" opacity="1" stroke="#1F78B4" stroke-width="2" points="87,244 87,18 "/>
</svg>
