<svg width="960" height="540" viewBox="0 0 960 540" xmlns="http://www.w3.org/2000/svg">
<text x="480" y="32" dy="0.76em" text-anchor="middle" font-family="sans-serif" font-size="16.129032258064516" opacity="1" fill="#000000">
Packets
</text>
<text x="27" y="263" dy="0.76em" text-anchor="middle" font-family="sans-serif" font-size="9.67741935483871" opacity="1" fill="#000000" transform="rotate(270, 27, 263)">
Total sample time (ms)
</text>
<text x="510" y="513" dy="-0.5ex" text-anchor="middle" font-family="sans-serif" font-size="9.67741935483871" opacity="1" fill="#000000">
Iterations (x 10^6)
</text>
<line opacity="0.2" stroke="#000000" stroke-width="1" x1="272" y1="472" x2="272" y2="52"/>
<line opacity="0.2" stroke="#000000" stroke-width="1" x1="458" y1="472" x2="458" y2="52"/>
<line opacity="0.2" stroke="#000000" stroke-width="1" x1="644" y1="472" x2="644" y2="52"/>
<line opacity="0.2" stroke="#000000" stroke-width="1" x1="830" y1="472" x2="830" y2="52"/>
<line opacity="0.2" stroke="#000000" stroke-width="1" x1="87" y1="392" x2="933" y2="392"/>
<line opacity="0.2" stroke="#000000" stroke-width="1" x1="87" y1="313" x2="933" y2="313"/>
<line opacity="0.2" stroke="#000000" stroke-width="1" x1="87" y1="234" x2="933" y2="234"/>
<line opacity="0.2" stroke="#000000" stroke-width="1" x1="87" y1="155" x2="933" y2="155"/>
<line opacity="0.2" stroke="#000000" stroke-width="1" x1="87" y1="76" x2="933" y2="76"/>
<polyline fill="none" opacity="1" stroke="#000000" stroke-width="1" points="86,53 86,473 "/>
<text x="77" y="392" dy="0.5ex" text-anchor="end" font-family="sans-serif" font-size="9.67741935483871" opacity="1" fill="#000000">
50.0
</text>
<polyline fill="none" opacity="1" stroke="#000000" stroke-width="1" points="81,392 86,392 "/>
<text x="77" y="313" dy="0.5ex" text-anchor="end" font-family="sans-serif" font-size="9.67741935483871" opacity="1" fill="#000000">
100.0
</text>
<polyline fill="none" opacity="1" stroke="#000000" stroke-width="1" points="81,313 86,313 "/>
<text x="77" y="234" dy="0.5ex" text-anchor="end" font-family="sans-serif" font-size="9.67741935483871" opacity="1" fill="#000000">
150.0
</text>
<polyline fill="none" opacity="1" stroke="#000000" stroke-width="1" points="81,234 86,234 "/>
<text x="77" y="155" dy="0.5ex" text-anchor="end" font-family="sans-serif" font-size="9.67741935483871" opacity="1" fill="#000000">
200.0
</text>
<polyline fill="none" opacity="1" stroke="#000000" stroke-width="1" points="81,155 86,155 "/>
<text x="77" y="76" dy="0.5ex" text-anchor="end" font-family="sans-serif" font-size="9.67741935483871" opacity="1" fill="#000000">
250.0
</text>
<polyline fill="none" opacity="1" stroke="#000000" stroke-width="1" points="81,76 86,76 "/>
<polyline fill="none" opacity="1" stroke="#000000" stroke-width="1" points="87,473 933,473 "/>
<text x="272" y="483" dy="0.76em" text-anchor="middle" font-family="sans-serif" font-size="9.67741935483871" opacity="1" fill="#000000">
0.5
</text>
<polyline fill="none" opacity="1" stroke="#000000" stroke-width="1" points="272,473 272,478 "/>
<text x="458" y="483" dy="0.76em" text-anchor="middle" font-family="sans-serif" font-size="9.67741935483871" opacity="1" fill="#000000">
1
</text>
<polyline fill="none" opacity="1" stroke="#000000" stroke-width="1" points="458,473 458,478 "/>
<text x="644" y="483" dy="0.76em" text-anchor="middle" font-family="sans-serif" font-size="9.67741935483871" opacity="1" fill="#000000">
1.5
</text>
<polyline fill="none" opacity="1" stroke="#000000" stroke-width="1" points="644,473 644,478 "/>
<text x="830" y="483" dy="0.76em" text-anchor="middle" font-family="sans-serif" font-size="9.67741935483871" opacity="1" fill="#000000">
2
</text>
<polyline fill="none" opacity="1" stroke="#000000" stroke-width="1" points="830,473 830,478 "/>
<polyline fill="none" opacity="1" stroke="#E31A1C" stroke-width="1" points="87,472 933,53 "/>
<polygon opacity="0.25" fill="#E31A1C" points="87,472 933,56 933,53 "/>
<polyline fill="none" opacity="1" stroke="#1F78B4" stroke-width="1" points="87,472 933,315 "/>
<polygon opacity="0.25" fill="#1F78B4" points="87,472 933,316 933,313 "/>
<text x="132" y="68" dy="0.76em" text-anchor="start" font-family="sans-serif" font-size="9.67741935483871" opacity="1" fill="#000000">
Base Sample
</text>
<text x="132" y="83" dy="0.76em" text-anchor="start" font-family="sans-serif" font-size="9.67741935483871" opacity="1" fill="#000000">
New Sample
</text>
<polyline fill="none" opacity="1" stroke="#E31A1C" stroke-width="2" points="102,73 122,73 "/>
<polyline fill="none" opacity="1" stroke="#1F78B4" stroke-width="2" points="102,88 122,88 "/>
</svg>
